﻿Mận	 id = 198280
Xiêm	 id = 198281
Louis	 id = 198282
Tịch	 id = 198283
Victoria	 id = 178708
Bum	 id = 198284
Bưởi	 id = 198285
Xốp	 id = 198286
Đệ	 id = 198287
Để	 id = 198288
Đề	 id = 197833
Lĩnh	 id = 198289
Santos	 id = 183801
A	 id = 198148
Độ	 id = 198290
Đằng	 id = 198291
Alves	 id = 198292
Yong-Il	 id = 198293
Y	 id = 197856
Hyun	 id = 197859
Biển	 id = 198294
Bác	 id = 198295
Tắc	 id = 197867
Bô	 id = 198296
Cuông	 id = 198297
Phố	 id = 198298
Thiệu	 id = 197878
Doan	 id = 198299
Đăng	 id = 197884
Dâu	 id = 198300
Lynh	 id = 198301
Thụy	 id = 197892
Địa	 id = 198302
Sướng	 id = 198303
Nhơn	 id = 198304
Jong-il	 id = 198305
Chắc	 id = 198306
Clijsters	 id = 198307
Tiệm	 id = 198308
Nhin	 id = 198309
Hóa	 id = 197906
Nin	 id = 198310
Tiệp	 id = 198311
Bửu	 id = 198156
Yeon	 id = 198312
Sáu	 id = 198313
Tông	 id = 198314
Dừa	 id = 198315
Ah	 id = 197945
Kontum	 id = 193523
Sun	 id = 197950
Am	 id = 198316
Ao	 id = 198317
Thúy	 id = 197963
Rứa	 id = 198318
Xiển	 id = 198319
Bị	 id = 198320
Duẩn	 id = 198321
Vật	 id = 198322
Soái	 id = 198323
Thiển	 id = 198324
Xung	 id = 198325
Đắc	 id = 197985
Dạ	 id = 198326
Hoon	 id = 198327
Tranh	 id = 198328
Cathy	 id = 198329
Túy	 id = 198330
Há	 id = 198331
Đơn	 id = 198332
Thiều	 id = 198014
Tái	 id = 198333
Joong	 id = 198334
Ma	 id = 198225
Đán	 id = 198335
My	 id = 198336
Ni	 id = 198337
Na	 id = 198037
Đào	 id = 198338
Đàn	 id = 198339
Hee	 id = 198045
Đài	 id = 198340
Nhượng	 id = 198341
Glass	 id = 183656
Thiếp	 id = 198342
Ké	 id = 198343
Đen	 id = 198344
Oa	 id = 198345
Hiên	 id = 198346
Mân	 id = 198347
Brao	 id = 198348
Pyung	 id = 198349
Thạc	 id = 198067
Đồn	 id = 198350
Phân	 id = 198351
Hi	 id = 198082
Tháo	 id = 198352
Thát	 id = 198353
Woon	 id = 198354
William	 id = 198103
Đương	 id = 198355
Trãi	 id = 198356
Il	 id = 198105
Đĩnh	 id = 198109
Thái	 id = 198118
May	 id = 198357
Max	 id = 198358
Lỗi	 id = 198359
Giáng	 id = 198360
Đan	 id = 198142
Đam	 id = 198361
Clijster	 id = 198362
Un	 id = 198363
Ken	 id = 198364
Mùi	 id = 198365
Harry	 id = 198366
Jung	 id = 197817
Tị	 id = 198367
Ngát	 id = 198368
Charles	 id = 191629
Khế	 id = 198369
Sổ	 id = 198370
Chuyền	 id = 198371
Quynh	 id = 198372
Mơ	 id = 198373
Basinger	 id = 198374
Băng	 id = 197849
Nhược	 id = 197852
Cattrall	 id = 198375
Vy	 id = 197853
Đoàn	 id = 198376
Vi	 id = 197871
Thỏa	 id = 198377
Mạn	 id = 197874
Tới	 id = 198378
Điệp	 id = 198379
Định	 id = 197888
Mười	 id = 198380
Kin	 id = 198381
Dếnh	 id = 198382
Mỳ	 id = 198383
Phần	 id = 198384
Jin	 id = 198385
Jenny	 id = 198386
Mỹ	 id = 195523
Chuẩn	 id = 197907
Quách	 id = 198247
Ký	 id = 198387
Bin	 id = 198388
Eun	 id = 198389
Quềnh	 id = 198390
Xoay	 id = 198391
Thần	 id = 197931
Đạo	 id = 197936
Đôn	 id = 198392
Đạm	 id = 198393
Đại	 id = 197939
Jong-un	 id = 198394
Neul	 id = 198395
Đáng	 id = 198396
Quắc	 id = 198397
Miên	 id = 197958
Lộ	 id = 198398
Sen	 id = 198399
Quần	 id = 197969
Ri	 id = 198400
Hwa	 id = 198401
Trận	 id = 198402
Ngoạt	 id = 198403
Dzếnh	 id = 198404
Đồng	 id = 197976
Vạn	 id = 197981
Mách	 id = 198405
Điểu	 id = 198406
Hòe	 id = 198407
Sơ	 id = 198408
Vệt	 id = 198409
Tịnh	 id = 197994
Hòa	 id = 197997
Đảm	 id = 198410
Voa	 id = 198411
Huateng	 id = 198412
Đức	 id = 195528
Nên	 id = 198413
Hoan	 id = 198414
Chữ	 id = 198415
Đạt	 id = 198015
Đãng	 id = 198416
Lầu	 id = 198216
Điềm	 id = 198417
Sển	 id = 198418
Điền	 id = 198419
Xô	 id = 198420
Nhiễm	 id = 198421
Binh	 id = 198422
Thủy	 id = 198020
Kiểng	 id = 198423
Miện	 id = 198424
Vĩ	 id = 198024
Giư	 id = 198425
Út	 id = 198426
Úy	 id = 198427
Soon	 id = 198428
Úc	 id = 195554
Trỗi	 id = 198429
Của	 id = 198430
Phuông	 id = 198431
Thơm	 id = 198432
Nhanh	 id = 198433
Đà	 id = 198434
Woo	 id = 198066
Đá	 id = 198435
Won	 id = 198436
Đỉnh	 id = 198437
Joon	 id = 198438
Kook	 id = 198439
Mạt	 id = 198076
Sến	 id = 198440
Dởng	 id = 198441
Tụy	 id = 198442
Nhạ	 id = 198443
Son	 id = 198444
Soo	 id = 198445
Tí	 id = 198446
Joo	 id = 198447
Sỹ	 id = 198106
Đình	 id = 198113
Tử	 id = 198122
Choong	 id = 198448
Cloutier	 id = 198449
Kesley	 id = 198131
Kardashian	 id = 198450
Pop	 id = 198451
Tum	 id = 198452
Lạng	 id = 198453
Chín	 id = 198454
Đông	 id = 198143
