california	count=3	 id = 183436
las vegas	count=3	 id = 195426
châu á	count=4	 id = 195378
nhật	count=4	 id = 195526
phần lan	count=4	 id = 195408
trần quang khải	count=5	 id = 197474
tân định	count=5	 id = 205379
đức	count=6	 id = 195528
anh	count=7	 id = 195522
hà nội	count=10	 id = 192517
singapore	count=10	 id = 188284
tp hcm	count=11	 id = 192589
hàn quốc	count=12	 id = 186874
mỹ	count=30	 id = 195523
vn	count=34	 id = 195532
việt nam	count=207	 id = 192572
